Survival analysis with Poisson regression - Lisa M. Rosenthal
…
Even though I’m interested in using the poisson model because I want to
use time-varying covariates, the model can still run fine even when the
variables remain constant. For simplicity, that’s what I’ll do.

Let’s work with the leukemia dataset from the package survival.

#leukemia dataset
data(leukemia, package = "survival")

#add an id column
df <- as_tibble(leukemia) %>% 
  mutate(id = seq_len(n())) 
df

## # A tibble: 23 x 4
##     time status x             id
##    <dbl>  <dbl> <fct>      <int>
##  1     9      1 Maintained     1
##  2    13      1 Maintained     2
##  3    13      0 Maintained     3
##  4    18      1 Maintained     4
##  5    23      1 Maintained     5
##  6    28      0 Maintained     6
##  7    31      1 Maintained     7
##  8    34      1 Maintained     8
##  9    45      0 Maintained     9
## 10    48      1 Maintained    10
## # … with 13 more rows
…
